<?xml version="1.0" encoding="utf-8"?>
<!-- Generator: Adobe Illustrator 19.1.0, SVG Export Plug-In . SVG Version: 6.00 Build 0)  -->
<svg version="1.1" id="Layer_1" xmlns="http://www.w3.org/2000/svg" xmlns:xlink="http://www.w3.org/1999/xlink" x="0px" y="0px"
	 viewBox="0 0 300 175" style="enable-background:new 0 0 300 175;" xml:space="preserve">
<style type="text/css">
	.st0{fill:#E6E7E8;}
	.st1{fill:none;stroke:#C2C2C2;stroke-width:7;stroke-miterlimit:10;stroke-dasharray:17,5;}
	.st2{fill:none;stroke:#C2C2C2;stroke-width:4;stroke-miterlimit:10;stroke-dasharray:18.0406,6.6465;}
	.st3{fill:#E6E7E8;stroke:#C2C2C2;stroke-width:1.5;stroke-miterlimit:10;}
	.st4{fill:none;stroke:#C2C2C2;stroke-miterlimit:10;}
	.st5{fill:none;stroke:#C2C2C2;stroke-width:7;stroke-miterlimit:10;stroke-dasharray:17.1251,5.0368;}
	.st6{fill:#BCBEC0;}
	.st7{fill:none;stroke:#BCBEC0;stroke-width:3;stroke-miterlimit:10;}
	.st8{fill:none;stroke:#BCBEC0;stroke-width:1.5;stroke-miterlimit:10;}
	.st9{fill:none;stroke:#C2C2C2;stroke-width:2;stroke-miterlimit:10;}
	.st10{fill:none;stroke:#C2C2C2;stroke-width:2;stroke-miterlimit:10;stroke-dasharray:10,6;}
	.st11{fill:none;stroke:#C2C2C2;stroke-miterlimit:10;stroke-dasharray:5,3;}
	.st12{fill:none;stroke:#BCBEC0;stroke-width:2;stroke-miterlimit:10;}
	.st13{fill:none;stroke:#BCBEC0;stroke-miterlimit:10;}
	.st14{fill:#E6E7E8;stroke:#BCBEC0;stroke-width:2;stroke-miterlimit:10;}
	.st15{fill:#E6E7E8;stroke:#BCBEC0;stroke-miterlimit:10;}
	.st16{fill:none;stroke:#BCBEC0;stroke-width:0.5;stroke-miterlimit:10;}
	.st17{fill:none;stroke:#BCBEC0;stroke-width:0.75;stroke-miterlimit:10;}
	.st18{fill:none;stroke:#BCBEC0;stroke-width:2;stroke-linecap:round;stroke-miterlimit:10;}
	.st19{fill:#D1D3D4;}
	.st20{fill:none;stroke:#D1D3D4;stroke-width:2;stroke-miterlimit:10;}
	.st21{fill:none;stroke:#D1D3D4;stroke-width:2;stroke-linecap:round;stroke-miterlimit:10;}
	.st22{fill:none;stroke:#D1D3D4;stroke-width:3;stroke-linecap:round;stroke-miterlimit:10;}
	.st23{fill:none;stroke:#D1D3D4;stroke-linecap:round;stroke-miterlimit:10;}
	.st24{fill:none;stroke:#D1D3D4;stroke-width:3;stroke-linecap:square;stroke-miterlimit:10;}
	.st25{fill:#A7A9AC;stroke:#E6E7E8;stroke-width:2;stroke-miterlimit:10;}
</style>
<rect x="0" y="0" class="st0" width="300" height="174.9"/>
<g>
	<g id="User">
		<g>
			<path class="st6" d="M116.2,99.5c7,0,12.7-7.7,12.7-17.1s-5.7-17.1-12.7-17.1c-3.4,0-6.7,1.8-9.1,5.2c-2.3,3.2-3.6,7.5-3.6,12
				C103.5,91.8,109.2,99.5,116.2,99.5z M116.2,68.4c5.4,0,9.9,6.3,9.9,14c0,7.7-4.4,14-9.9,14c-5.4,0-9.9-6.3-9.9-14
				C106.4,74.7,110.8,68.4,116.2,68.4z M126.1,98.9c-0.8,0-1.4,0.7-1.4,1.6s0.6,1.6,1.4,1.6c5.4,0,9.9,4.9,9.9,10.9
				c0,0.9-0.6,1.6-1.4,1.6H97.9c-0.8,0-1.4-0.7-1.4-1.6c0-6,4.4-10.9,9.9-10.9c0.8,0,1.4-0.7,1.4-1.6s-0.6-1.6-1.4-1.6
				c-7,0-12.7,6.3-12.7,14c0,2.6,1.9,4.7,4.2,4.7h36.6c2.3,0,4.2-2.1,4.2-4.7C138.8,105.2,133.1,98.9,126.1,98.9z"/>
		</g>
	</g>
</g>
<path class="st7" d="M204.5,143.3h-109c-8.8,0-16-7.2-16-16V47.6c0-8.8,7.2-16,16-16h109c8.8,0,16,7.2,16,16v79.6
	C220.5,136.1,213.3,143.3,204.5,143.3z"/>
<path class="st8" d="M202.5,77.5h-54.3c-1.4,0-2.6-1.2-2.6-2.6v-0.3c0-1.4,1.2-2.6,2.6-2.6h54.3c1.4,0,2.6,1.2,2.6,2.6v0.3
	C205.1,76.3,204,77.5,202.5,77.5z"/>
<path class="st8" d="M192.1,88.5h-43.9c-1.4,0-2.6-1.2-2.6-2.6v-0.3c0-1.4,1.2-2.6,2.6-2.6h43.9c1.4,0,2.6,1.2,2.6,2.6v0.3
	C194.7,87.3,193.6,88.5,192.1,88.5z"/>
<path class="st8" d="M192.1,101.6h-43.9c-1.4,0-2.6-1.2-2.6-2.6v-0.3c0-1.4,1.2-2.6,2.6-2.6h43.9c1.4,0,2.6,1.2,2.6,2.6V99
	C194.7,100.4,193.6,101.6,192.1,101.6z"/>
<path class="st8" d="M166.1,112.3h-17.9c-1.4,0-2.6-1.2-2.6-2.6v-0.3c0-1.4,1.2-2.6,2.6-2.6h17.9c1.4,0,2.6,1.2,2.6,2.6v0.3
	C168.7,111.1,167.5,112.3,166.1,112.3z"/>
</svg>
