<?xml version="1.0" encoding="utf-8"?>
<!-- Generator: Adobe Illustrator 19.1.0, SVG Export Plug-In . SVG Version: 6.00 Build 0)  -->
<svg version="1.1" id="Layer_1" xmlns="http://www.w3.org/2000/svg" xmlns:xlink="http://www.w3.org/1999/xlink" x="0px" y="0px"
	 viewBox="0 0 300 175" style="enable-background:new 0 0 300 175;" xml:space="preserve">
<style type="text/css">
	.st0{fill:#E6E7E8;}
	.st1{fill:none;stroke:#C2C2C2;stroke-width:7;stroke-miterlimit:10;stroke-dasharray:17,5;}
	.st2{fill:none;stroke:#C2C2C2;stroke-width:4;stroke-miterlimit:10;stroke-dasharray:18.0406,6.6465;}
	.st3{fill:#E6E7E8;stroke:#C2C2C2;stroke-width:1.5;stroke-miterlimit:10;}
	.st4{fill:none;stroke:#C2C2C2;stroke-miterlimit:10;}
	.st5{fill:none;stroke:#C2C2C2;stroke-width:7;stroke-miterlimit:10;stroke-dasharray:17.1251,5.0368;}
	.st6{fill:#D1D3D4;}
	.st7{fill:none;stroke:#BCBEC0;stroke-width:3;stroke-miterlimit:10;}
	.st8{fill:none;stroke:#BCBEC0;stroke-width:1.5;stroke-miterlimit:10;}
	.st9{fill:#BCBEC0;}
	.st10{fill:none;stroke:#C2C2C2;stroke-width:2;stroke-miterlimit:10;}
	.st11{fill:none;stroke:#C2C2C2;stroke-width:2;stroke-miterlimit:10;stroke-dasharray:10,6;}
	.st12{fill:none;stroke:#C2C2C2;stroke-miterlimit:10;stroke-dasharray:5,3;}
	.st13{fill:none;stroke:#BCBEC0;stroke-width:2;stroke-miterlimit:10;}
	.st14{fill:none;stroke:#BCBEC0;stroke-miterlimit:10;}
	.st15{fill:#E6E7E8;stroke:#BCBEC0;stroke-width:2;stroke-miterlimit:10;}
	.st16{fill:#E6E7E8;stroke:#BCBEC0;stroke-miterlimit:10;}
	.st17{fill:none;stroke:#BCBEC0;stroke-width:0.5;stroke-miterlimit:10;}
	.st18{fill:none;stroke:#BCBEC0;stroke-width:0.75;stroke-miterlimit:10;}
	.st19{fill:none;stroke:#BCBEC0;stroke-width:2;stroke-linecap:round;stroke-miterlimit:10;}
	.st20{fill:none;stroke:#D1D3D4;stroke-width:2;stroke-miterlimit:10;}
	.st21{fill:none;stroke:#D1D3D4;stroke-width:2;stroke-linecap:round;stroke-miterlimit:10;}
	.st22{fill:none;stroke:#D1D3D4;stroke-width:3;stroke-linecap:round;stroke-miterlimit:10;}
	.st23{fill:none;stroke:#D1D3D4;stroke-linecap:round;stroke-miterlimit:10;}
	.st24{fill:none;stroke:#D1D3D4;stroke-width:3;stroke-linecap:square;stroke-miterlimit:10;}
	.st25{fill:#A7A9AC;stroke:#E6E7E8;stroke-width:2;stroke-miterlimit:10;}
</style>
<rect x="0" y="0" class="st0" width="300" height="174.9"/>
<g>
	<path class="st13" d="M88.9,56.5c0-0.5,0.2-1,0.5-1.4c0.3-0.4,0.7-0.5,1.3-0.5c0.3,0,1.6,0.6,3.8,1.9c2.2,1.3,4.7,2.7,7.3,4.4
		c2.7,1.6,4.1,2.5,4.3,2.6l10.4-5.8V45.7l-15.9-9.1c-0.6-0.4-0.9-0.9-0.9-1.5c0-0.6,0.3-1.1,0.9-1.5c1.6-1.1,3.5-1.9,5.8-2.5
		c2.3-0.6,4.5-0.9,6.6-0.9c6.7,0,12.4,2.4,17.1,7.1c4.7,4.7,7.1,10.5,7.1,17.1s-2.4,12.4-7.1,17.1c-4.7,4.7-10.5,7.1-17.1,7.1
		c-5.1,0-9.7-1.5-14-4.5c-4.2-3-7.2-6.9-8.9-11.8C89.3,59.9,88.9,58,88.9,56.5L88.9,56.5z"/>
	<g>
		<path class="st14" d="M182.8,115.5c-3.9,0-7,3.2-7,7.2s3.1,7.2,7,7.2s7-3.2,7-7.2S186.6,115.5,182.8,115.5z M185.6,125.5
			c-0.8,0.8-1.7,1.2-2.8,1.2c-1.1,0-2-0.4-2.8-1.2c-0.8-0.8-1.2-1.8-1.2-2.9c0-1.1,0.4-2.1,1.2-2.9c0.8-0.8,1.7-1.2,2.8-1.2
			c1.1,0,2,0.4,2.8,1.2c0.8,0.8,1.2,1.8,1.2,2.9C186.8,123.8,186.4,124.7,185.6,125.5z"/>
		<path class="st13" d="M198.5,121.6L142,64.1c-1.6,4.2-3.3,7.2-6.5,10.5c-3.2,3.3-6.1,5-10.2,6.7l56.6,57.6
			c1.6,1.6,3.4,2.4,5.7,2.4c2.2,0,4.1-0.8,5.7-2.4l5.2-5.5c1.6-1.6,2.4-3.5,2.4-5.8C200.9,125.2,200.1,123.3,198.5,121.6z"/>
	</g>
	<g id="Layer_2">
		<g>
			<path class="st15" d="M155.9,84.8l0.7,0.7l5.4,5.4l7-7c0,0,0.3-1.1-0.1-2c-0.7-0.9-2-2-2-2l27-27c0,0,8.6-4.3,10.5-6
				c1.8-2.4,6.7-11.2,6.7-11.2s0.1-1.9-0.9-2.8c-0.3-0.3-0.5-0.5-0.7-0.7c-0.3-0.3-0.3-0.3-0.3-0.3c-0.1-0.1-0.4-0.4-0.7-0.7
				c-1-1-2.8-0.9-2.8-0.9s-8.8,4.9-11.2,6.7c-1.7,1.9-6,10.5-6,10.5l-27,27c0,0-1.1-1.3-2-2c-1-0.4-2-0.1-2-0.1l-7,7L155.9,84.8z"/>
		</g>
	</g>
	<g id="Layer_2_1_">
		<g>
			<path class="st15" d="M100.8,121.6c-3.4,3.4-3.4,9,0,12.5l3.3,3.3l3.3,3.3c3.4,3.4,9,3.4,12.5,0l12-12c0-4.9,3.4-11.6,9.2-17.4
				c5.8-5.8,12.4-9.1,17.2-9.2c2.4-3.4,2.1-8.2-1-11.3l-3.3-3.3l-3.3-3.3c-3.1-3.1-7.9-3.4-11.3-1c-0.1,4.8-3.5,11.5-9.2,17.2
				c-5.8,5.8-12.6,9.2-17.4,9.2L100.8,121.6z"/>
		</g>
	</g>
	<g id="Layer_2_2_">
		<g>
			<path class="st14" d="M106.2,123.8l11.5,11.5c0.4,0.4,0.4,1,0,1.4c-0.4,0.4-1,0.4-1.4,0l-11.5-11.5c-0.4-0.4-0.4-1,0-1.4
				C105.1,123.4,105.8,123.4,106.2,123.8z"/>
		</g>
	</g>
	<g id="Layer_2_3_">
		<g>
			<path class="st14" d="M143.5,87.2l10.2,10.2c0.3,0.3,0.3,0.9,0,1.2c-0.3,0.3-0.9,0.3-1.2,0l-10.2-10.2c-0.3-0.3-0.3-0.9,0-1.2
				C142.6,86.9,143.1,86.9,143.5,87.2z"/>
		</g>
	</g>
</g>
</svg>
