<?xml version="1.0" encoding="utf-8"?>
<!-- Generator: Adobe Illustrator 19.1.0, SVG Export Plug-In . SVG Version: 6.00 Build 0)  -->
<svg version="1.1" id="Layer_1" xmlns="http://www.w3.org/2000/svg" xmlns:xlink="http://www.w3.org/1999/xlink" x="0px" y="0px"
	 viewBox="0 0 300 175" style="enable-background:new 0 0 300 175;" xml:space="preserve">
<style type="text/css">
	.st0{fill:#E6E7E8;}
	.st1{fill:none;stroke:#C2C2C2;stroke-width:7;stroke-miterlimit:10;stroke-dasharray:17,5;}
	.st2{fill:none;stroke:#C2C2C2;stroke-width:4;stroke-miterlimit:10;stroke-dasharray:18.0406,6.6465;}
	.st3{fill:#E6E7E8;stroke:#C2C2C2;stroke-width:1.5;stroke-miterlimit:10;}
	.st4{fill:none;stroke:#C2C2C2;stroke-miterlimit:10;}
	.st5{fill:none;stroke:#C2C2C2;stroke-width:7;stroke-miterlimit:10;stroke-dasharray:17.1251,5.0368;}
	.st6{fill:#D1D3D4;}
	.st7{fill:none;stroke:#BCBEC0;stroke-width:3;stroke-miterlimit:10;}
	.st8{fill:none;stroke:#BCBEC0;stroke-width:1.5;stroke-miterlimit:10;}
	.st9{fill:#BCBEC0;}
	.st10{fill:none;stroke:#C2C2C2;stroke-width:2;stroke-miterlimit:10;}
	.st11{fill:none;stroke:#C2C2C2;stroke-width:2;stroke-miterlimit:10;stroke-dasharray:10,6;}
	.st12{fill:none;stroke:#C2C2C2;stroke-miterlimit:10;stroke-dasharray:5,3;}
	.st13{fill:none;stroke:#D1D3D4;stroke-width:2;stroke-miterlimit:10;}
	.st14{fill:none;stroke:#D1D3D4;stroke-miterlimit:10;}
	.st15{fill:#E6E7E8;stroke:#D1D3D4;stroke-width:2;stroke-miterlimit:10;}
	.st16{fill:none;stroke:#BCBEC0;stroke-width:2;stroke-miterlimit:10;}
	.st17{fill:none;stroke:#BCBEC0;stroke-miterlimit:10;}
	.st18{fill:#E6E7E8;stroke:#BCBEC0;stroke-width:2;stroke-miterlimit:10;}
	.st19{fill:#E6E7E8;stroke:#BCBEC0;stroke-miterlimit:10;}
	.st20{fill:none;stroke:#BCBEC0;stroke-width:0.5;stroke-miterlimit:10;}
	.st21{fill:none;stroke:#BCBEC0;stroke-width:0.75;stroke-miterlimit:10;}
	.st22{fill:none;}
	.st23{font-family:'OpenSans-Extrabold';}
	.st24{font-size:15px;}
	.st25{fill:none;stroke:#BCBEC0;stroke-width:2;stroke-linecap:round;stroke-miterlimit:10;}
	.st26{fill:none;stroke:#D1D3D4;stroke-width:2;stroke-linecap:round;stroke-miterlimit:10;}
	.st27{fill:none;stroke:#D1D3D4;stroke-width:3;stroke-linecap:round;stroke-miterlimit:10;}
	.st28{fill:none;stroke:#D1D3D4;stroke-linecap:round;stroke-miterlimit:10;}
	.st29{fill:none;stroke:#D1D3D4;stroke-width:3;stroke-linecap:square;stroke-miterlimit:10;}
	.st30{fill:#A7A9AC;stroke:#E6E7E8;stroke-width:2;stroke-miterlimit:10;}
</style>
<rect x="0" y="0" class="st0" width="300" height="174.9"/>
<path class="st16" d="M235.6,144.3H64.4c-4.4,0-8-3.6-8-8V37.7c0-4.4,3.6-8,8-8h171.1c4.4,0,8,3.6,8,8v98.7
	C243.6,140.7,240,144.3,235.6,144.3z"/>
<line class="st17" x1="56.3" y1="40.5" x2="243.4" y2="40.5"/>
<line class="st17" x1="56.3" y1="53.3" x2="243.4" y2="53.3"/>
<line class="st20" x1="57.7" y1="74.2" x2="243.4" y2="74.2"/>
<path class="st21" d="M236.2,50.3h-7.6c-0.6,0-1-0.4-1-1v-4.1c0-0.5,0.4-1,1-1h7.6c0.6,0,1,0.5,1,1v4.1
	C237.2,49.8,236.8,50.3,236.2,50.3z"/>
<path class="st21" d="M224,50.3h-7.6c-0.5,0-1-0.4-1-1v-4.1c0-0.5,0.5-1,1-1h7.6c0.6,0,1,0.5,1,1v4.1C225,49.8,224.5,50.3,224,50.3z
	"/>
<path class="st21" d="M211.7,50.3h-7.6c-0.6,0-1-0.4-1-1v-4.1c0-0.5,0.4-1,1-1h7.6c0.6,0,1,0.5,1,1v4.1
	C212.7,49.8,212.2,50.3,211.7,50.3z"/>
<path class="st21" d="M69.5,50.3h-5.2c-0.5,0-1-0.4-1-1v-4.2c0-0.5,0.5-1,1-1h5.2c0.5,0,1,0.5,1,1v4.2
	C70.5,49.8,70.1,50.3,69.5,50.3z"/>
<rect x="91.2" y="58" class="st22" width="41.2" height="11.8"/>
<text transform="matrix(1 0 0 1 91.1667 69.4001)" class="st9 st23 st24">Wiki</text>
<line class="st25" x1="92.3" y1="94" x2="119.7" y2="94"/>
<line class="st25" x1="92.3" y1="98.3" x2="112.8" y2="98.3"/>
<line class="st25" x1="92.3" y1="108.3" x2="141.3" y2="108.3"/>
<line class="st25" x1="92.3" y1="113.3" x2="141.3" y2="113.3"/>
<line class="st25" x1="92.3" y1="118.3" x2="141.3" y2="118.3"/>
<line class="st25" x1="92.3" y1="123.2" x2="141.3" y2="123.2"/>
<line class="st25" x1="154.2" y1="108.3" x2="203.2" y2="108.3"/>
<line class="st25" x1="154.2" y1="113.3" x2="203.2" y2="113.3"/>
<line class="st25" x1="154.2" y1="118.3" x2="203.2" y2="118.3"/>
<line class="st25" x1="154.2" y1="123.2" x2="192" y2="123.2"/>
</svg>
